┌──────────┬──────────────────────┬───┬──────────────────────┬──────────────────────┬──────────────────────┐
│ VendorID │ tpep_pickup_datetime │ … │         Zone         │ average_fair_by_Bo…  │ average_fair_by_zone │
│  int64   │      timestamp       │   │       varchar        │        double        │        double        │
├──────────┼──────────────────────┼───┼──────────────────────┼──────────────────────┼──────────────────────┤
│        2 │ 2020-11-21 12:41:48  │ … │ Belmont              │   27.630240292604032 │    26.63640866873063 │
│        2 │ 2021-09-11 10:38:00  │ … │ Belmont              │   27.630240292604032 │    26.63640866873063 │
│        2 │ 2021-02-05 12:37:56  │ … │ Belmont              │   27.630240292604032 │    26.63640866873063 │
│        2 │ 2021-02-05 12:31:48  │ … │ Belmont              │   27.630240292604032 │    26.63640866873063 │
│        2 │ 2020-06-09 13:04:33  │ … │ Belmont              │   27.630240292604032 │    26.63640866873063 │
│        1 │ 2020-06-08 20:59:23  │ … │ Belmont              │   27.630240292604032 │    26.63640866873063 │
│        1 │ 2020-06-05 18:56:14  │ … │ Belmont              │   27.630240292604032 │    26.63640866873063 │
│        1 │ 2020-06-04 12:08:39  │ … │ Belmont              │   27.630240292604032 │    26.63640866873063 │
│        2 │ 2021-10-31 10:14:00  │ … │ Belmont              │   27.630240292604032 │    26.63640866873063 │
│        2 │ 2021-10-31 08:15:00  │ … │ Belmont              │   27.630240292604032 │    26.63640866873063 │
│        2 │ 2021-10-25 19:57:10  │ … │ Belmont              │   27.630240292604032 │    26.63640866873063 │
│        2 │ 2021-10-22 05:26:07  │ … │ Belmont              │   27.630240292604032 │    26.63640866873063 │
│        2 │ 2021-10-19 19:02:00  │ … │ Belmont              │   27.630240292604032 │    26.63640866873063 │
│        2 │ 2020-03-07 21:17:53  │ … │ Belmont              │   27.630240292604032 │    26.63640866873063 │
│        1 │ 2020-02-09 13:11:55  │ … │ Belmont              │   27.630240292604032 │    26.63640866873063 │
│        1 │ 2020-02-10 00:08:47  │ … │ Belmont              │   27.630240292604032 │    26.63640866873063 │
│        2 │ 2020-09-13 22:24:00  │ … │ Belmont              │   27.630240292604032 │    26.63640866873063 │
│        2 │ 2020-09-14 08:23:00  │ … │ Belmont              │   27.630240292604032 │    26.63640866873063 │
│        2 │ 2020-09-14 09:28:00  │ … │ Belmont              │   27.630240292604032 │    26.63640866873063 │
│        2 │ 2020-09-16 10:33:48  │ … │ Belmont              │   27.630240292604032 │    26.63640866873063 │
│        · │          ·           │ · │    ·                 │            ·         │            ·         │
│        · │          ·           │ · │    ·                 │            ·         │            ·         │
│        · │          ·           │ · │    ·                 │            ·         │            ·         │
│        2 │ 2021-04-30 08:11:59  │ … │ West Chelsea/Hudso…  │   10.988030948561155 │   11.597953633227204 │
│        1 │ 2021-04-30 08:51:28  │ … │ West Chelsea/Hudso…  │   10.988030948561155 │   11.597953633227204 │
│        2 │ 2020-02-13 17:34:56  │ … │ West Chelsea/Hudso…  │   10.988030948561155 │   11.597953633227204 │
│        2 │ 2020-02-13 17:53:02  │ … │ West Chelsea/Hudso…  │   10.988030948561155 │   11.597953633227204 │
│        2 │ 2020-02-13 17:45:22  │ … │ West Chelsea/Hudso…  │   10.988030948561155 │   11.597953633227204 │
│        2 │ 2021-04-30 08:14:08  │ … │ West Chelsea/Hudso…  │   10.988030948561155 │   11.597953633227204 │
│        2 │ 2021-04-30 08:53:57  │ … │ West Chelsea/Hudso…  │   10.988030948561155 │   11.597953633227204 │
│        1 │ 2020-02-13 17:54:12  │ … │ West Chelsea/Hudso…  │   10.988030948561155 │   11.597953633227204 │
│        2 │ 2020-02-13 17:52:01  │ … │ West Chelsea/Hudso…  │   10.988030948561155 │   11.597953633227204 │
│        2 │ 2020-02-13 17:27:42  │ … │ West Chelsea/Hudso…  │   10.988030948561155 │   11.597953633227204 │
│        2 │ 2020-02-13 17:40:31  │ … │ West Chelsea/Hudso…  │   10.988030948561155 │   11.597953633227204 │
│        1 │ 2021-12-01 18:15:21  │ … │ West Chelsea/Hudso…  │   10.988030948561155 │   11.597953633227204 │
│        2 │ 2021-04-30 08:04:56  │ … │ West Chelsea/Hudso…  │   10.988030948561155 │   11.597953633227204 │
│        1 │ 2020-02-13 17:27:03  │ … │ West Chelsea/Hudso…  │   10.988030948561155 │   11.597953633227204 │
│        1 │ 2020-02-13 17:25:23  │ … │ West Chelsea/Hudso…  │   10.988030948561155 │   11.597953633227204 │
│        1 │ 2020-02-13 17:28:55  │ … │ West Chelsea/Hudso…  │   10.988030948561155 │   11.597953633227204 │
│        2 │ 2020-02-13 17:44:09  │ … │ West Chelsea/Hudso…  │   10.988030948561155 │   11.597953633227204 │
│        2 │ 2021-04-30 08:28:28  │ … │ West Chelsea/Hudso…  │   10.988030948561155 │   11.597953633227204 │
│        2 │ 2021-11-06 22:08:08  │ … │ West Chelsea/Hudso…  │   10.988030948561155 │   11.597953633227204 │
│        2 │ 2021-04-30 08:42:15  │ … │ West Chelsea/Hudso…  │   10.988030948561155 │   11.597953633227204 │
├──────────┴──────────────────────┴───┴──────────────────────┴──────────────────────┴──────────────────────┤
│ 5454808 rows (40 shown)                                                             25 columns (5 shown) │
└──────────────────────────────────────────────────────────────────────────────────────────────────────────┘
